{
    "editor": [
        {
            "icon": "",
            "key": "settings",
            "header": "Settings",
            "disable": false,
            "fields": [
                {
                    "key": "backgroundImage",
                    "header": "Template background image",
                    "type": "image"
                },
                {
                    "key": "cards",
                    "header": "Card",
                    "type": "array",
                    "fields": [
                        {
                            "key": "card1",
                            "header": "Card 1",
                            "type": "array",
                            "fields": [
                                {
                                    "key": "image",
                                    "header": "Image 1",
                                    "type": "image"
                                },
                                {
                                    "key": "label",
                                    "header": "Label 1",
                                    "type": "text"
                                }
                            ]
                        },
                        {
                            "key": "card2",
                            "header": "Card 2",
                            "type": "array",
                            "fields": [
                                {
                                    "key": "image",
                                    "header": "Image 2",
                                    "type": "image"
                                },
                                {
                                    "key": "label",
                                    "header": "Label 2",
                                    "type": "text"
                                }
                            ]
                        },
                        {
                            "key": "card3",
                            "header": "Card 3",
                            "type": "array",
                            "fields": [
                                {
                                    "key": "image",
                                    "header": "Image 3",
                                    "type": "image"
                                },
                                {
                                    "key": "label",
                                    "header": "Label 3",
                                    "type": "text"
                                }
                            ]
                        },
                        {
                            "key": "card4",
                            "header": "Card 4",
                            "type": "array",
                            "fields": [
                                {
                                    "key": "image",
                                    "header": "Image 4",
                                    "type": "image"
                                },
                                {
                                    "key": "label",
                                    "header": "Label 4",
                                    "type": "text"
                                }
                            ]
                        }
                    ]
                }
            ]
        }
    ],
    "config": {
        "settings": {
            "backgroundImage": "https://frontend.apps.playcent.com/35f4ba1ae66b4a3e84bc062af04bfce3/assets/cloud_network_blockchain_bitcoin_storage-100745950-large.jpg",
            "cards": {
                "card1": {
                    "image": "https://frontend.apps.playcent.com/35f4ba1ae66b4a3e84bc062af04bfce3/assets/Bitcoin-chart.jpg",
                    "label": ""
                },
                "card2": {
                    "image": "https://frontend.apps.playcent.com/35f4ba1ae66b4a3e84bc062af04bfce3/assets/download (21).png",
                    "label": ""
                },
                "card3": {
                    "image": "https://frontend.apps.playcent.com/35f4ba1ae66b4a3e84bc062af04bfce3/assets/OG-Collateral-wide-1.jpg",
                    "label": ""
                },
                "card4": {
                    "image": "https://frontend.apps.playcent.com/35f4ba1ae66b4a3e84bc062af04bfce3/assets/download (39).jpeg",
                    "label": ""
                }
            }
        }
    }
}